[
  {
    "relation": ["delegate_permission/common.handle_all_urls"],
    "target": {
      "namespace": "android_app",
      "package_name": "xyz.appmaker.khdgdf",
      "sha256_cert_fingerprints": ["3D:58:76:81:A1:17:15:6D:A0:CB:0B:9B:54:D3:07:DA:36:21:11:64:9D:9D:AB:D5:76:BD:A0:21:23:4F:9C:46"]
    }
  }
]
